{
    "KPlugin": {
        "Authors": [
            {
                "Email": "niccolo@venerandi.com",
                "Name": "Niccolo Venerandi",
                "Name[ar]": "Niccolo Venerandi",
                "Name[az]": "Niccolo Venerandi",
                "Name[ca@valencia]": "Niccolo Venerandi",
                "Name[ca]": "Niccolo Venerandi",
                "Name[en_GB]": "Niccolo Venerandi",
                "Name[es]": "Niccolo Venerandi",
                "Name[fi]": "Niccolo Venerandi",
                "Name[fr]": "Niccolo Venerandi",
                "Name[hu]": "Niccolo Venerandi",
                "Name[ia]": "Niccolo Venerandi",
                "Name[it]": "Niccolo Venerandi",
                "Name[lt]": "Niccolo Venerandi",
                "Name[nl]": "Niccolo Venerandi",
                "Name[nn]": "Niccolo Venerandi",
                "Name[pl]": "Niccolo Venerandi",
                "Name[pt_BR]": "Niccolo Venerandi",
                "Name[ro]": "Niccolo Venerandi",
                "Name[ru]": "Niccolo Venerandi",
                "Name[sk]": "Niccolo Venerandi",
                "Name[sl]": "Niccolo Venerandi",
                "Name[sv]": "Niccolo Venerandi",
                "Name[uk]": "Niccolo Venerandi",
                "Name[vi]": "Niccolo Venerandi",
                "Name[x-test]": "xxNiccolo Venerandixx",
                "Name[zh_CN]": "Niccolo Venerandi"
            }
        ],
        "Category": "Utilities",
        "Description": "To be used as a separator between margin areas in themes that support them",
        "Description[ar]": "لاستخدامها كفاصل بين مناطق الهامش في السمات التي تدعمها",
        "Description[az]": "Onları dəstəkləyən mövzularda hasiyələr arasında ayırıcı kimi istifadə olunur",
        "Description[ca@valencia]": "S'usarà com a separador entre les àrees de marge en els temes que els permeten",
        "Description[ca]": "S'usarà com a separador entre les àrees de marge en els temes que els permeten",
        "Description[cs]": "Pro použití jako oddělovač okrajů oblastí u motivů, které je podporují",
        "Description[en_GB]": "To be used as a separator between margin areas in themes that support them",
        "Description[es]": "A usar como separador entre áreas de margen en los temas que lo permitan",
        "Description[fi]": "Käytetään reunusalueitten erottimena sitä tukevissa teemoissa",
        "Description[fr]": "Pour être utilisé comme un séparateur entre les zones de marges, pour les thèmes qui les prennent en charge.",
        "Description[hu]": "Elválasztó margóterületek között olyan témákban, amik támogatják azokat",
        "Description[ia]": "Debe esser usate como un separator inter areas in themas que supporta los",
        "Description[it]": "Da utilizzare come separatore tra le aree dei margini nei temi che le supportano",
        "Description[lt]": "Palaikomuose apipavidalinimuose bus naudojamas kaip skirtukas tarp paraščių sričių",
        "Description[nl]": "Als een scheiding gebruiken tussen gebieden in marges in thema's die dat ondersteunen",
        "Description[nn]": "Skal brukast som skilje mellom margområde i tema som støttar dei",
        "Description[pl]": "Używany jako rozdzielacz pomiędzy obszarami marginesów w wyglądach, które to obsługują",
        "Description[pt_BR]": "Para ser usado como separador entre as áreas de margens nos temas que suportam",
        "Description[ro]": "De folosit ca separator între zonele de margine în tematici ce le susțin",
        "Description[ru]": "Разделитель полей для использования в оформлениях",
        "Description[sl]": "Za uporabo kot ločilnik med robnimi področji pri temah, ki to podpirajo",
        "Description[sv]": "Att använda som en avdelare mellan marginalområden i teman som stöder dem",
        "Description[uk]": "Буде використано як роздільник між областями полів у темах, де передбачено підтримку таких роздільників",
        "Description[vi]": "Để dùng làm phần phân cách giữa các vùng viền trong các chủ đề có hỗ trợ viền",
        "Description[x-test]": "xxTo be used as a separator between margin areas in themes that support themxx",
        "Description[zh_CN]": "用于作为边距之间的分隔符，仅适用于支持的主题",
        "Icon": "filename-divider",
        "Id": "org.kde.plasma.marginsseparator",
        "License": "GPLv2",
        "Name": "Margins Separator",
        "Name[ar]": "فاصل للهوامش",
        "Name[az]": "Haşiyə ayiricisi",
        "Name[ca@valencia]": "Separador de marges",
        "Name[ca]": "Separador de marges",
        "Name[cs]": "Oddělovač okrajů",
        "Name[en_GB]": "Margins Separator",
        "Name[es]": "Separador de márgenes",
        "Name[eu]": "Marjina bereizleak",
        "Name[fi]": "Reunuserotin",
        "Name[fr]": "Séparateur de marges",
        "Name[hu]": "Margóelválasztó",
        "Name[ia]": "Separator de margines",
        "Name[id]": "Pemisah Margin",
        "Name[it]": "Separatore dei margini",
        "Name[ko]": "여백 구분자",
        "Name[lt]": "Paraščių skirtukas",
        "Name[nl]": "Scheiding in marges",
        "Name[nn]": "Margskiljar",
        "Name[pl]": "Oddzielacz marginesów",
        "Name[pt]": "Separador de Margens",
        "Name[pt_BR]": "Separador de margens",
        "Name[ro]": "Separator de margini",
        "Name[ru]": "Разделитель полей",
        "Name[sk]": "Oddeľovač okrajov",
        "Name[sl]": "Ločilnik robov",
        "Name[sv]": "Marginalavdelare",
        "Name[ta]": "விளிம்புகளை பிரிப்பான்",
        "Name[tr]": "Kenar Boşlukları Ayırıcı",
        "Name[uk]": "Роздільник полів",
        "Name[vi]": "Phần phân cách viền",
        "Name[x-test]": "xxMargins Separatorxx",
        "Name[zh_CN]": "边距分隔符",
        "Name[zh_TW]": "邊際分隔器",
        "ServiceTypes": [
            "Plasma/Applet"
        ],
        "Version": "0.1"
    },
    "Keywords": "separator",
    "Keywords[ar]": "فاصل",
    "Keywords[az]": "ayırıcı",
    "Keywords[ca]": "separador",
    "Keywords[cs]": "oddělovač",
    "Keywords[en_GB]": "separator",
    "Keywords[es]": "separador",
    "Keywords[eu]": "bereizlea",
    "Keywords[fi]": "erotin",
    "Keywords[fr]": "Séparateur",
    "Keywords[hu]": "elválasztó",
    "Keywords[ia]": "separator",
    "Keywords[id]": "pemisah",
    "Keywords[it]": "separatore",
    "Keywords[ko]": "구분자",
    "Keywords[lt]": "skirtukas",
    "Keywords[nl]": "scheiding",
    "Keywords[nn]": "skiljar",
    "Keywords[pa]": "ਵੱਖਰੇਵਾਂ",
    "Keywords[pl]": "oddzielacz",
    "Keywords[pt]": "separador",
    "Keywords[pt_BR]": "separador",
    "Keywords[ro]": "separator",
    "Keywords[ru]": "разделитель",
    "Keywords[sk]": "oddeľovač",
    "Keywords[sl]": "ločilnik",
    "Keywords[sv]": "avdelare",
    "Keywords[ta]": "பிரிப்பான்",
    "Keywords[tr]": "ayırıcı",
    "Keywords[uk]": "separator;роздільник;",
    "Keywords[vi]": "phần phân cách",
    "Keywords[x-test]": "xxseparatorxx",
    "Keywords[zh_CN]": "separator,分隔符,分割",
    "Keywords[zh_TW]": "分隔線",
    "X-Plasma-API": "declarativeappletscript",
    "X-Plasma-MainScript": "ui/main.qml"
}
