{
    "KPlugin": {
        "FormFactors": [
            "tablet",
            "handset",
            "desktop"
        ],
        "Icon": "preferences-desktop-tablet",
        "Id": "kcm_tablet",
        "License": "GPL",
        "Name": "Drawing Tablet",
        "Name[ar]": "لوح رسم",
        "Name[az]": "Rəsm tablosu",
        "Name[ca]": "Tauleta de dibuix",
        "Name[cs]": "Grafický tablet",
        "Name[en_GB]": "Drawing Tablet",
        "Name[es]": "Tableta de dibujo",
        "Name[fi]": "Piirtopöytä",
        "Name[fr]": "Tablette de dessin",
        "Name[hu]": "Rajztábla",
        "Name[ia]": "Tabletta de Designar",
        "Name[it]": "Tavoletta da disegno",
        "Name[nl]": "Tekentablet",
        "Name[pa]": "ਡਰਾਇੰਗ ਟੇਬਲੇਟ",
        "Name[pl]": "Tablet rysunkowy",
        "Name[pt_BR]": "Tablet de desenho",
        "Name[ro]": "Tabletă pentru desen",
        "Name[ru]": "Планшет для рисования",
        "Name[sk]": "Tablet na kreslenie",
        "Name[sl]": "Risalna tablica",
        "Name[sv]": "Ritplatta",
        "Name[uk]": "Планшет для малювання",
        "Name[vi]": "Bảng vẽ",
        "Name[x-test]": "xxDrawing Tabletxx",
        "Name[zh_CN]": "数位板"
    },
    "X-KDE-Keywords": "drawing,tablet,wacom,pen",
    "X-KDE-Keywords[ca]": "dibuix,dibuixar,tauleta,wacom,llapis",
    "X-KDE-Keywords[es]": "dibujo,tableta,wacom,lápiz",
    "X-KDE-Keywords[fr]": "dessin, tablette, wacom, stylet",
    "X-KDE-Keywords[it]": "disegno,tavoletta,wacom,penna",
    "X-KDE-Keywords[nl]": "tekenen,tablet,wacom,pen",
    "X-KDE-Keywords[sl]": "risanje,tablica,wacom,pisalo",
    "X-KDE-Keywords[sv]": "ritplatta,platta,wacom,penna",
    "X-KDE-Keywords[uk]": "drawing,tablet,wacom,pen,малювання,рисування,планшет,ваком,перо",
    "X-KDE-Keywords[x-test]": "xxdrawingxx,xxtabletxx,xxwacomxx,xxpenxx",
    "X-KDE-OnlyShowOnQtPlatforms": "wayland",
    "X-KDE-System-Settings-Parent-Category": "input-devices",
    "X-Plasma-API": "declarativeappletscript",
    "X-Plasma-MainScript": "ui/main.qml"
}
